<?xml version="1.0" encoding="utf-8"?>
<!-- Generator: Adobe Illustrator 16.0.0, SVG Export Plug-In . SVG Version: 6.00 Build 0)  -->
<!DOCTYPE svg PUBLIC "-//W3C//DTD SVG 1.1//EN" "http://www.w3.org/Graphics/SVG/1.1/DTD/svg11.dtd">
<svg version="1.1" id="Capa_1" xmlns="http://www.w3.org/2000/svg" xmlns:xlink="http://www.w3.org/1999/xlink" x="0px" y="0px"
	 width="426.309px" height="60px" viewBox="0 0 426.309 60" enable-background="new 0 0 426.309 60" xml:space="preserve">
<g>
	<path fill="#FFFFFF" d="M213.566,55.527L185.516,0l-28.163,55.527h-4.169v3.496h12.666v-3.478h-4.186l5.219-10.271h21.864
		l5.181,10.257h-4.891v3.491h28.698v-3.496H213.566L213.566,55.527z M168.799,41.527L168.799,41.527l9.041-17.834l9.008,17.834
		H168.799z"/>
	<path fill="#FFFFFF" d="M311.559,18.029c-4.89-2.186-7.524-1.874-12.784-1.874h-25.28v3.628h4.15V55.37h-4.162l-0.007,3.538h24.495
		c6.524,0.21,9.78,0.516,15.571-2.889c6.481-3.812,10.467-10.726,10.467-18.258C324.009,29.489,319.116,21.41,311.559,18.029
		L311.559,18.029z M302.849,55.376L302.849,55.376c-3.527,0-5.123-0.007-5.123-0.007l-0.014-35.586c0,0,1.606-0.008,5.137-0.008
		c9.559,0,17.307,8.427,17.307,17.987C320.155,47.322,312.406,55.376,302.849,55.376z"/>
	<polygon fill="#FFFFFF" points="217.482,55.484 217.482,59.023 229.734,59.023 229.734,55.484 225.503,55.484 225.503,23.376 
		252.26,59.023 265.946,59.023 265.946,19.89 270.034,19.89 270.034,16.262 257.904,16.262 257.904,19.89 261.982,19.89 
		261.979,43.712 242.079,16.283 217.477,16.283 217.477,19.89 221.707,19.89 221.707,55.484 	"/>
	<polygon fill="#FFFFFF" points="369.114,19.89 369.114,23.358 373.196,23.358 373.196,16.276 324.671,16.276 324.671,19.879 
		328.743,19.879 328.743,55.484 324.659,55.484 324.654,59.023 373.196,59.023 373.196,52.025 369.106,52.025 369.106,55.486 
		348.903,55.486 348.888,33.955 365.031,33.955 365.031,30.323 348.888,30.323 348.888,19.89 	"/>
	<polygon fill="#FFFFFF" points="28.328,19.822 28.318,16.276 0.016,16.276 0.016,19.822 4.09,19.822 4.09,55.484 0.006,55.484 
		0,59.023 48.542,59.023 48.542,52.025 44.376,52.025 44.376,55.486 24.25,55.486 24.235,19.822 	"/>
	<path fill="#FFFFFF" d="M88.688,17.798c-6.288-2.834-23.676-2.834-29.965,0C50.948,21.3,45.916,29.212,45.916,37.782
		c0,7.811,4.099,14.971,10.767,18.922c7.413,4.394,26.632,4.394,34.044,0c6.67-3.951,10.77-11.111,10.77-18.922
		C101.496,29.212,96.464,21.301,88.688,17.798L88.688,17.798z M79.726,56.038L79.726,56.038c-3.627,0-8.164-0.005-8.164-0.005
		l-0.016-36.417c0,0,4.55-0.008,8.18-0.008c9.835,0,17.811,8.27,17.811,18.175C97.535,47.691,89.561,56.038,79.726,56.038z"/>
	<path fill="#FFFFFF" d="M126.656,29.212c3.029,0.98,14.396,4.792,16.159,5.36c6.322,2.031,11.005,6.428,11.005,11.932
		c0,4.043-1.384,7.479-4.941,9.801c-2.608,1.703-6.074,2.721-10.23,2.721h-34.948v-7.135h4.226l0.007,3.674l24.154-0.004
		c3.548,0,4.681-1.248,4.681-3.054c0-3.086-6.134-5.356-13.146-7.532c-11.535-3.576-20.268-5.795-20.271-15.698h-0.002v-0.069
		c0-4.499,2.557-8.65,5.604-10.725c1.524-1.038,4.014-2.17,8.866-2.17h32.876v7.021h-4.149l-0.007-3.455h-25.339
		c-3.03,0-4.68,1.411-4.68,3.215C116.519,26.41,123.921,28.331,126.656,29.212z"/>
	<path fill="#FFFFFF" d="M399.146,29.212c3.028,0.98,14.396,4.792,16.158,5.36c6.321,2.031,11.005,6.428,11.005,11.932
		c0,4.043-1.384,7.479-4.942,9.801c-2.607,1.703-6.072,2.721-10.229,2.721h-34.949v-7.135h4.226l0.008,3.674l24.153-0.004
		c3.548,0,4.683-1.248,4.683-3.054c0-3.086-6.136-5.356-13.146-7.532c-11.535-3.576-20.267-5.795-20.271-15.698h-0.001l-0.001-0.069
		c0-4.499,2.557-8.65,5.604-10.725c1.525-1.038,4.016-2.17,8.867-2.17h32.876v7.021h-4.15l-0.007-3.455H393.69
		c-3.03,0-4.68,1.411-4.68,3.215C389.007,26.41,396.409,28.331,399.146,29.212z"/>
</g>
</svg>
